Reproducible Research: Peer Assessment 1
…
create data frame grouped by date and add count_steps variable including NA values.

# create df group by date
activity_steps_taken <- activitySet_df %>%
    group_by(date) %>%
    summarize(count_steps = sum(steps,na.rm=TRUE)
    )

Part of data is shown as follow:

# show data
activity_steps_taken

## # A tibble: 61 x 2
##          date count_steps
##        <date>       <int>
##  1 2012-10-01           0
##  2 2012-10-02         126
##  3 2012-10-03       11352
##  4 2012-10-04       12116
##  5 2012-10-05       13294
##  6 2012-10-06       15420
##  7 2012-10-07       11015
##  8 2012-10-08           0
##  9 2012-10-09       12811
## 10 2012-10-10        9900
## # ... with 51 more rows
…
Grouped dataset by time interval to obtain the total number and average number of steps taken per interval, averaged across all days.

# Avg number of steps grouped by interval
# create count_steps and avg_steps variables 
# include NA values
activity_time <- activitySet_df %>%
    group_by(interval) %>%
    summarize(count_steps = sum(steps,na.rm=TRUE),
              avg_steps = mean(steps,na.rm=TRUE)
    )

Portion of activity_time dataset

## # A tibble: 288 x 3
##    interval count_steps avg_steps
##       <int>       <int>     <dbl>
##  1        0          91 1.7169811
##  2        5          18 0.3396226
##  3       10           7 0.1320755
##  4       15           8 0.1509434
##  5       20           4 0.0754717
##  6       25         111 2.0943396
##  7       30          28 0.5283019
##  8       35          46 0.8679245
##  9       40           0 0.0000000
## 10       45          78 1.4716981
## # ... with 278 more rows
…
Check activity_fill_na dataset with 0 NA values

##    steps     date interval 
##        0        0        0

Portion of activity_fill_na dataset after imputing NA values

## Source: local data frame [17,568 x 3]
## Groups: interval [288]
## 
## # A tibble: 17,568 x 3
##        steps       date interval
##        <dbl>     <date>    <int>
##  1 1.7169811 2012-10-01        0
##  2 0.3396226 2012-10-01        5
##  3 0.1320755 2012-10-01       10
##  4 0.1509434 2012-10-01       15
##  5 0.0754717 2012-10-01       20
##  6 2.0943396 2012-10-01       25
##  7 0.5283019 2012-10-01       30
##  8 0.8679245 2012-10-01       35
##  9 0.0000000 2012-10-01       40
## 10 1.4716981 2012-10-01       45
## # ... with 17,558 more rows
…
