…
# key = part_sex and value = count.
#
# 3. separate() part_sex into two separate variables (columns),
# called "part" and "sex", respectively. You may need to check
# the 'Examples' section of ?separate to remember how the 'into'
# argument should be phrased.
#
sat %>%
  select(-contains("total")) %>%
  gather(part_sex, count, -score_range) %>%
  separate(col = part_sex, into = c("part" , "sex")) %>%
  ### <Your call to separate()> %>%
  print
  
# A tibble: 36 x 4
   score_range  part   sex  count
 *       <chr> <chr> <chr>  <int>
 1     700-800  read  male  40151
 2     600-690  read  male 121950
 3     500-590  read  male 227141
 4     400-490  read  male 242554
 5     300-390  read  male 113568
 6     200-290  read  male  30728
 7     700-800  read   fem  38898
 8     600-690  read   fem 126084
 9     500-590  read   fem 259553
10     400-490  read   fem 296793
# ... with 26 more rows
…
Source: local data frame [36 x 6]
Groups: part, sex [6]

# A tibble: 36 x 6
   score_range  part   sex  count  total       prop
         <chr> <chr> <chr>  <int>  <int>      <dbl>
 1     700-800  read  male  40151 776092 0.05173485
 2     600-690  read  male 121950 776092 0.15713343
 3     500-590  read  male 227141 776092 0.29267278
 4     400-490  read  male 242554 776092 0.31253253
 5     300-390  read  male 113568 776092 0.14633317
 6     200-290  read  male  30728 776092 0.03959324
 7     700-800  read   fem  38898 883955 0.04400450
 8     600-690  read   fem 126084 883955 0.14263622
 9     500-590  read   fem 259553 883955 0.29362694
10     400-490  read   fem 296793 883955 0.33575578
# ... with 26 more rows
```
